$date
	Wed Apr 15 17:12:24 2020
$end
$version
	Icarus Verilog
$end
$timescale
	1s
$end
$scope module HA_tb $end
$var wire 2 ! out [1:0] $end
$var reg 1 " a $end
$var reg 1 # b $end
$var integer 32 $ file [31:0] $end
$scope module HA1 $end
$var wire 1 " a $end
$var wire 1 # b $end
$var wire 1 % w2 $end
$var wire 1 & w3 $end
$var wire 2 ' out [1:0] $end
$upscope $end
$scope task display $end
$upscope $end
$upscope $end
$enddefinitions $end
#0
$dumpvars
b10 '
1&
1%
b10000000000000000000000000000011 $
0#
0"
b10 !
$end
#1
b11 !
b11 '
0&
1#
#2
1&
0%
0#
1"
#3
1%
b0 !
b0 '
1&
1#
#4
